{
  "data": [
    {
      "archived": null,
      "badges": [],
      "created_at": "2026-02-06T10:59:23.213000+00:00",
      "datasets": [
        {
          "id": "68f8b4fb3931d355f20592f3",
          "page": "https://dados.gov.pt/pt/datasets/gestao-de-residuos-contentores-e-ecopontos/",
          "title": "Gest\u00e3o de res\u00edduos - contentores e ecopontos",
          "uri": "https://dados.gov.pt/api/1/datasets/gestao-de-residuos-contentores-e-ecopontos/"
        }
      ],
      "deleted": null,
      "description": "Localiza\u00e7\u00e3o de ecopontos e contentores (papel/cart\u00e3o, pl\u00e1stico/metal e vidro) nos munic\u00edpios de Alandroal, Arraiolos, Borba, Estremoz, \u00c9vora, Montemor-o-Novo, Mora, Mour\u00e3o, Redondo, Reguengos de Monsaraz, Vendas Novas e Vila Vi\u00e7osa",
      "extras": {},
      "featured": null,
      "id": "6985c98bd7f950ebf363e1c6",
      "image": "https://dados.gov.pt/s/images/f6/383ddcaf18441296b3c960a879257e.png",
      "image_thumbnail": "https://dados.gov.pt/s/images/f6/383ddcaf18441296b3c960a879257e-500.png",
      "last_modified": "2026-02-06T11:01:06.249000+00:00",
      "metrics": {
        "datasets": 1
      },
      "organization": {
        "acronym": "Gesamb",
        "badges": [],
        "class": "Organization",
        "id": "68e526b044a72b2b58514099",
        "logo": "https://dados.gov.pt/s/avatars/8a/11fd285335450ab60f64ac958b7a0e-original.png",
        "logo_thumbnail": "https://dados.gov.pt/s/avatars/8a/11fd285335450ab60f64ac958b7a0e-100.png",
        "name": "Gesamb - Gest\u00e3o Ambiental e de Res\u00edduos, EIM",
        "page": "https://dados.gov.pt/pt/organizations/gesamb-gestao-ambiental-e-de-residuos-eim/",
        "slug": "gesamb-gestao-ambiental-e-de-residuos-eim",
        "uri": "https://dados.gov.pt/api/1/organizations/gesamb-gestao-ambiental-e-de-residuos-eim/"
      },
      "owner": null,
      "page": "https://dados.gov.pt/pt/reuses/gestao-de-residuos-recolha-e-niveis-de-enchimento/",
      "permissions": {
        "delete": false,
        "edit": false
      },
      "private": false,
      "slug": "gestao-de-residuos-recolha-e-niveis-de-enchimento",
      "tags": [],
      "title": "Gest\u00e3o de res\u00edduos - Recolha e n\u00edveis de enchimento",
      "topic": "environment_and_energy",
      "type": "visualization",
      "uri": "https://dados.gov.pt/api/1/reuses/gestao-de-residuos-recolha-e-niveis-de-enchimento/",
      "url": "https://gesamb.pt/"
    }
  ],
  "next_page": "https://dados.gov.pt/api/1/reuses/?page=2&page_size=1",
  "page": 1,
  "page_size": 1,
  "previous_page": null,
  "total": 94
}
